{
    "name": "PJInput",
    "maps": [
        {
            "name": "Standard",
            "id": "2a95f7df-1105-4bca-94f8-23f050c04d7a",
            "actions": [
                {
                    "name": "Movement",
                    "type": "Value",
                    "id": "d9fbb3e2-8ec9-40d3-9ff1-edbe46e884f4",
                    "expectedControlType": "Vector2",
                    "processors": "NormalizeVector2",
                    "interactions": "",
                    "initialStateCheck": true
                },
                {
                    "name": "Attack",
                    "type": "Button",
                    "id": "5812a138-085c-4ce2-b4fb-220cacf76061",
                    "expectedControlType": "Button",
                    "processors": "",
                    "interactions": "",
                    "initialStateCheck": false
                }
            ],
            "bindings": [
                {
                    "name": "WASD",
                    "id": "f0dd842a-f80f-4639-88e3-c1e9a58e913d",
                    "path": "2DVector",
                    "interactions": "",
                    "processors": "",
                    "groups": "",
                    "action": "Movement",
                    "isComposite": true,
                    "isPartOfComposite": false
                },
                {
                    "name": "up",
                    "id": "04af98a4-50be-4f88-a809-faa8e4bde080",
                    "path": "<Keyboard>/w",
                    "interactions": "",
                    "processors": "",
                    "groups": "",
                    "action": "Movement",
                    "isComposite": false,
                    "isPartOfComposite": true
                },
                {
                    "name": "down",
                    "id": "ac776fda-6201-4d3c-9685-a1d3221c0db5",
                    "path": "<Keyboard>/s",
                    "interactions": "",
                    "processors": "",
                    "groups": "",
                    "action": "Movement",
                    "isComposite": false,
                    "isPartOfComposite": true
                },
                {
                    "name": "left",
                    "id": "06305e42-f56d-4717-96df-e30b6150ab82",
                    "path": "<Keyboard>/a",
                    "interactions": "",
                    "processors": "",
                    "groups": "",
                    "action": "Movement",
                    "isComposite": false,
                    "isPartOfComposite": true
                },
                {
                    "name": "right",
                    "id": "0371ec19-40d0-4416-81a1-98ca58ac0423",
                    "path": "<Keyboard>/d",
                    "interactions": "",
                    "processors": "",
                    "groups": "",
                    "action": "Movement",
                    "isComposite": false,
                    "isPartOfComposite": true
                },
                {
                    "name": "",
                    "id": "3540413e-95d7-4e8f-b4bf-5931e610522b",
                    "path": "<Keyboard>/space",
                    "interactions": "",
                    "processors": "",
                    "groups": "",
                    "action": "Attack",
                    "isComposite": false,
                    "isPartOfComposite": false
                }
            ]
        }
    ],
    "controlSchemes": []
}