%YAML 1.1
%TAG !u! tag:unity3d.com,2011:
--- !u!1045 &1
EditorBuildSettings:
  m_ObjectHideFlags: 0
  serializedVersion: 2
  m_Scenes:
  - enabled: 1
    path: Assets/Scenes/Menu.unity
    guid: 2cda990e2423bbf4892e6590ba056729
  - enabled: 1
    path: Assets/Scenes/Pelea.unity
    guid: 7b06753e09e5d36479dd673c96f26330
  - enabled: 1
    path: Assets/Scenes/GameOver.unity
    guid: 107b379f2bc58164ea9f31626af03268
  m_configObjects: {}
